,date,type,location,value
0,2019-12-31,Model,LU,0.0
1,2020-01-01,Model,LU,0.0
2,2020-01-02,Model,LU,0.0
3,2020-01-03,Model,LU,0.0
4,2020-01-04,Model,LU,0.0
5,2020-01-05,Model,LU,0.0
6,2020-01-06,Model,LU,0.0
7,2020-01-07,Model,LU,0.0
8,2020-01-08,Model,LU,0.0
9,2020-01-09,Model,LU,0.0
10,2020-01-10,Model,LU,0.0
11,2020-01-11,Model,LU,0.0
12,2020-01-12,Model,LU,0.0
13,2020-01-13,Model,LU,0.0
14,2020-01-14,Model,LU,0.0
15,2020-01-15,Model,LU,0.0
16,2020-01-16,Model,LU,0.0
17,2020-01-17,Model,LU,0.0
18,2020-01-18,Model,LU,0.0
19,2020-01-19,Model,LU,0.0
20,2020-01-20,Model,LU,0.0
21,2020-01-21,Model,LU,0.0
22,2020-01-22,Model,LU,0.0
23,2020-01-23,Model,LU,0.0
24,2020-01-24,Model,LU,0.0
25,2020-01-25,Model,LU,0.0
26,2020-01-26,Model,LU,0.0
27,2020-01-27,Model,LU,0.0
28,2020-01-28,Model,LU,0.0
29,2020-01-29,Model,LU,0.0
30,2020-01-30,Model,LU,0.0
31,2020-01-31,Model,LU,0.0
32,2020-02-01,Model,LU,0.0
33,2020-02-02,Model,LU,0.0
34,2020-02-03,Model,LU,0.0
35,2020-02-04,Model,LU,0.0
36,2020-02-05,Model,LU,0.0
37,2020-02-06,Model,LU,0.0
38,2020-02-07,Model,LU,1.2693893793550766e-301
39,2020-02-08,Model,LU,2.361397306936431e-266
40,2020-02-09,Model,LU,3.719626081189453e-235
41,2020-02-10,Model,LU,1.462382178728435e-207
42,2020-02-11,Model,LU,3.73426376691438e-183
43,2020-02-12,Model,LU,1.4434384899096939e-161
44,2020-02-13,Model,LU,1.78543251393651e-142
45,2020-02-14,Model,LU,1.3704498418386862e-125
46,2020-02-15,Model,LU,1.1727920829985036e-110
47,2020-02-16,Model,LU,1.8790764445045894e-97
48,2020-02-17,Model,LU,8.916750223622533e-86
49,2020-02-18,Model,LU,1.880263271200655e-75
50,2020-02-19,Model,LU,2.5227662625256934e-66
51,2020-02-20,Model,LU,2.958729535897211e-58
52,2020-02-21,Model,LU,4.0172261434564755e-51
53,2020-02-22,Model,LU,8.096462468768856e-45
54,2020-02-23,Model,LU,3.0180178273825534e-39
55,2020-02-24,Model,LU,2.52757615956703e-34
56,2020-02-25,Model,LU,5.649364503733536e-30
57,2020-02-26,Model,LU,3.9241563624297836e-26
58,2020-02-27,Model,LU,9.69299422180911e-23
59,2020-02-28,Model,LU,9.591848122418612e-20
60,2020-02-29,Model,LU,4.225508114651153e-17
61,2020-03-01,Model,LU,9.097193369301212e-15
62,2020-03-02,Model,LU,1.0395273575422623e-12
63,2020-03-03,Model,LU,6.782343593942479e-11
64,2020-03-04,Model,LU,2.6952435617905855e-09
65,2020-03-05,Model,LU,6.907402825203691e-08
66,2020-03-06,Model,LU,1.2008599545773248e-06
67,2020-03-07,Model,LU,1.4810205050366119e-05
68,2020-03-08,Model,LU,0.00013480660537091188
69,2020-03-09,Model,LU,0.0009378883048272048
70,2020-03-10,Model,LU,0.005144415488948618
71,2020-03-11,Model,LU,0.0228649285972429
72,2020-03-12,Model,LU,0.08436923673341436
73,2020-03-13,Model,LU,0.26405613567873976
74,2020-03-14,Model,LU,0.7144132812426717
75,2020-03-15,Model,LU,1.699170148825935
76,2020-03-16,Model,LU,3.6060072686268088
77,2020-03-17,Model,LU,6.927700384187274
78,2020-03-18,Model,LU,12.324495135886155
79,2020-03-19,Model,LU,21.054752411250902
80,2020-03-20,Model,LU,34.93850595207745
81,2020-03-21,Model,LU,54.40177611927216
82,2020-03-22,Model,LU,77.02584083339116
83,2020-03-23,Model,LU,99.16899873299504
84,2020-03-24,Model,LU,118.34239714165471
85,2020-03-25,Model,LU,133.83132393269062
86,2020-03-26,Model,LU,145.9611751652979
87,2020-03-27,Model,LU,155.27461294544113
88,2020-03-28,Model,LU,162.14663062685068
89,2020-03-29,Model,LU,166.74972371839223
90,2020-03-30,Model,LU,169.15316331366
91,2020-03-31,Model,LU,169.42288046344805
92,2020-04-01,Model,LU,167.6780432001034
93,2020-04-02,Model,LU,164.10631794375973
94,2020-04-03,Model,LU,158.95331652746512
95,2020-04-04,Model,LU,152.50076176772507
96,2020-04-05,Model,LU,145.0430109201069
97,2020-04-06,Model,LU,136.86701390394953
98,2020-04-07,Model,LU,128.23763818420213
99,2020-04-08,Model,LU,119.38846808827496
100,2020-04-09,Model,LU,110.51729780854782
101,2020-04-10,Model,LU,101.78522448655909
102,2020-04-11,Model,LU,93.31825028786683
103,2020-04-12,Model,LU,85.21045342321129
104,2020-04-13,Model,LU,77.52798961004261
105,2020-04-14,Model,LU,70.31338493210852
106,2020-04-15,Model,LU,63.58975391966216
107,2020-04-16,Model,LU,57.36471463578021
108,2020-04-17,Model,LU,51.6338759705982
109,2020-04-18,Model,LU,46.383845621687165
110,2020-04-19,Model,LU,41.59475617534305
111,2020-04-20,Model,LU,37.2423370709545
112,2020-04-21,Model,LU,33.299577099212904
113,2020-04-22,Model,LU,29.73802958818297
114,2020-04-23,Model,LU,26.528813762715885
115,2020-04-24,Model,LU,23.643363284170153
116,2020-04-25,Model,LU,21.053968367346496
117,2020-04-26,Model,LU,18.734152275355886
118,2020-04-27,Model,LU,16.6589171571641
119,2020-04-28,Model,LU,14.804888574853239
120,2020-04-29,Model,LU,13.150382925042551
121,2020-04-30,Model,LU,11.675417412800973
122,2020-05-01,Model,LU,10.361678320786574
123,2020-05-02,Model,LU,9.19246001205875
124,2020-05-03,Model,LU,8.152584363302994
125,2020-05-04,Model,LU,7.228308101364445
126,2020-05-05,Model,LU,6.40722450915757
127,2020-05-06,Model,LU,5.678180584117624
128,2020-05-07,Model,LU,5.031387177381547
129,2020-05-08,Model,LU,4.459662519589619
130,2020-05-09,Model,LU,3.9633211578446264
131,2020-05-10,Model,LU,3.560822886556071
132,2020-05-11,Model,LU,3.3001100211239542
133,2020-05-12,Model,LU,3.256011470909707
134,2020-05-13,Model,LU,3.502972131336574
135,2020-05-14,Model,LU,4.073085883525974
136,2020-05-15,Model,LU,4.925916862939364
137,2020-05-16,Model,LU,5.950137350683502
138,2020-05-17,Model,LU,6.994990294276019
139,2020-05-18,Model,LU,7.912876870090852
140,2020-05-19,Model,LU,8.59340987655739
141,2020-05-20,Model,LU,8.979105341752339
142,2020-05-21,Model,LU,9.06359884556506
143,2020-05-22,Model,LU,8.879086797868903
144,2020-05-23,Model,LU,8.48031566204996
145,2020-05-24,Model,LU,7.930223846670912
146,2020-05-25,Model,LU,7.289588959570189
147,2020-05-26,Model,LU,6.610975768142428
148,2020-05-27,Model,LU,5.936190509879714
149,2020-05-28,Model,LU,5.2961127749971135
150,2020-05-29,Model,LU,4.711871274013516
151,2020-05-30,Model,LU,4.196593669703365
152,2020-05-31,Model,LU,3.7572390235639817
153,2020-06-01,Model,LU,3.3962461800935215
154,2020-06-02,Model,LU,3.1128865868090774
155,2020-06-03,Model,LU,2.9043041562526746
156,2020-06-04,Model,LU,2.7662740450289696
157,2020-06-05,Model,LU,2.6937323397151145
158,2020-06-06,Model,LU,2.681131780422343
159,2020-06-07,Model,LU,2.7226731797805455
160,2020-06-08,Model,LU,2.812453388547525
161,2020-06-09,Model,LU,2.9445617112035984
162,2020-06-10,Model,LU,3.113149583810038
163,2020-06-11,Model,LU,3.3124945326348127
164,2020-06-12,Model,LU,3.5370800697086136
165,2020-06-13,Model,LU,3.7817188230038896
166,2020-06-14,Model,LU,4.041756095271172
167,2020-06-15,Model,LU,4.313402159971835
168,2020-06-16,Model,LU,4.594248093592931
169,2020-06-17,Model,LU,4.884013887338679
170,2020-06-18,Model,LU,5.185551365226624
171,2020-06-19,Model,LU,5.506074390788278
172,2020-06-20,Model,LU,5.8585187233110565
173,2020-06-21,Model,LU,6.26285634743349
174,2020-06-22,Model,LU,6.747123877762422
175,2020-06-23,Model,LU,7.347893389396381
176,2020-06-24,Model,LU,8.109933447863995
177,2020-06-25,Model,LU,9.08488385852956
178,2020-06-26,Model,LU,10.328891364646434
179,2020-06-27,Model,LU,11.899304164024507
180,2020-06-28,Model,LU,13.850672167481353
181,2020-06-29,Model,LU,16.23041860194531
182,2020-06-30,Model,LU,19.074614745882677
183,2020-07-01,Model,LU,22.40429248782944
184,2020-07-02,Model,LU,26.222670971983476
185,2020-07-03,Model,LU,30.51356677472493
186,2020-07-04,Model,LU,35.24112181673726
187,2020-07-05,Model,LU,40.35084177596225
188,2020-07-06,Model,LU,45.77181021665756
189,2020-07-07,Model,LU,51.41984485839008
190,2020-07-08,Model,LU,57.20130056387932
191,2020-07-09,Model,LU,63.01720029733286
192,2020-07-10,Model,LU,68.7673866352155
193,2020-07-11,Model,LU,74.35442489688481
194,2020-07-12,Model,LU,79.68704536644192
195,2020-07-13,Model,LU,84.68297709561114
196,2020-07-14,Model,LU,89.27109126252542
197,2020-07-15,Model,LU,93.39283173919547
198,2020-07-16,Model,LU,97.002960249868
199,2020-07-17,Model,LU,100.06968117806288
200,2020-07-18,Model,LU,102.5742363070231
201,2020-07-19,Model,LU,104.51007343615188
202,2020-07-20,Model,LU,105.88169660521366
203,2020-07-21,Model,LU,106.70330169302338
204,2020-07-22,Model,LU,106.99729164063564
205,2020-07-23,Model,LU,106.79275253878667
206,2020-07-24,Model,LU,106.12395708509764
207,2020-07-25,Model,LU,105.02894686993854
208,2020-07-26,Model,LU,103.54823063197628
209,2020-07-27,Model,LU,101.72362273195445
210,2020-07-28,Model,LU,99.59723502723598
211,2020-07-29,Model,LU,97.2106262544826
212,2020-07-30,Model,LU,94.60410593117453
213,2020-07-31,Model,LU,91.81618453431186
214,2020-08-01,Model,LU,88.88315809739544
215,2020-08-02,Model,LU,85.8388131377793
216,2020-08-03,Model,LU,82.71423672913518
217,2020-08-04,Model,LU,79.53771632134182
218,2020-08-05,Model,LU,76.33471435817192
219,2020-08-06,Model,LU,73.12790365643758
220,2020-08-07,Model,LU,69.93725072530908
221,2020-08-08,Model,LU,66.78013558939989
222,2020-08-09,Model,LU,63.67149813127215
223,2020-08-10,Model,LU,60.624002411603676
224,2020-08-11,Model,LU,57.6482118038863
225,2020-08-12,Model,LU,54.752769058980654
226,2020-08-13,Model,LU,51.94457657151177
227,2020-08-14,Model,LU,49.22897314458264
228,2020-08-15,Model,LU,46.609904439620195
229,2020-08-16,Model,LU,44.090085058333734
230,2020-08-17,Model,LU,41.67115084175312
231,2020-08-18,Model,LU,39.35380049759264
232,2020-08-19,Model,LU,37.137926093511936
233,2020-08-20,Model,LU,35.022732292396135
234,2020-08-21,Model,LU,33.006844468519866
235,2020-08-22,Model,LU,31.088406041744054
236,2020-08-23,Model,LU,29.26516551117369
237,2020-08-24,Model,LU,27.534553769409193
238,2020-08-25,Model,LU,25.89375234199053
239,2020-08-26,Model,LU,24.339753231121
240,2020-08-27,Model,LU,22.869411054491756
241,2020-08-28,Model,LU,21.479488164277427
242,2020-08-29,Model,LU,20.166693412536162
243,2020-08-30,Model,LU,18.927715200953163
244,2020-08-31,Model,LU,17.75924941806767
245,2020-09-01,Model,LU,16.658022828187892
246,2020-09-02,Model,LU,15.620812435001062
247,2020-09-03,Model,LU,14.644461300880586
248,2020-09-04,Model,LU,13.72589126118606
249,2020-09-05,Model,LU,12.862112932266669
250,2020-09-06,Model,LU,12.050233373000001
251,2020-09-07,Model,LU,11.287461722928969
252,2020-09-08,Model,LU,10.571113105649566
253,2020-09-09,Model,LU,9.898611054188073
254,2020-09-10,Model,LU,9.267488685733698
255,2020-09-11,Model,LU,8.675388826240704
256,2020-09-12,Model,LU,8.120063261011762
257,2020-09-13,Model,LU,7.599371265316929
258,2020-09-14,Model,LU,7.1112775495607385
259,2020-09-15,Model,LU,6.653849782791946
260,2020-09-16,Model,LU,6.225258670778132
261,2020-09-17,Model,LU,5.823857438582933
262,2020-09-18,Model,LU,5.449326804033691
263,2020-09-19,Model,LU,5.111286532604722
264,2020-09-20,Model,LU,4.865960731312903
265,2020-09-21,Model,LU,4.9052535995191775
266,2020-09-22,Model,LU,5.665992792096449
267,2020-09-23,Model,LU,7.830067593933767
268,2020-09-24,Model,LU,12.099257619407881
269,2020-09-25,Model,LU,18.817248939392055
270,2020-09-26,Model,LU,27.68473803347288
271,2020-09-27,Model,LU,37.767024772887005
272,2020-09-28,Model,LU,47.78381895853936
273,2020-09-29,Model,LU,56.50820913538444
274,2020-09-30,Model,LU,63.09331165229637
275,2020-10-01,Model,LU,67.23708472380095
276,2020-10-02,Model,LU,69.18688564406408
277,2020-10-03,Model,LU,69.62663214400368
278,2020-10-04,Model,LU,69.49267298772895
279,2020-10-05,Model,LU,69.75947896816908
280,2020-10-06,Model,LU,71.23643121862645
281,2020-10-07,Model,LU,74.41630233671297
282,2020-10-08,Model,LU,79.40505853974626
283,2020-10-09,Model,LU,85.9413694040375
284,2020-10-10,Model,LU,93.4919946117974
285,2020-10-11,Model,LU,101.39606564727653
286,2020-10-12,Model,LU,109.03027250487463
287,2020-10-13,Model,LU,115.97280092105756
288,2020-10-14,Model,LU,122.14781362317237
289,2020-10-15,Model,LU,127.92962564711777
290,2020-10-16,Model,LU,134.1801378581181
291,2020-10-17,Model,LU,142.19398047414347
292,2020-10-18,Model,LU,153.54051468544904
293,2020-10-19,Model,LU,169.81881774962505
294,2020-10-20,Model,LU,192.37047378065813
295,2020-10-21,Model,LU,222.0121956234653
296,2020-10-22,Model,LU,258.84800056464746
297,2020-10-23,Model,LU,302.19999139791685
298,2020-10-24,Model,LU,350.66638048851826
299,2020-10-25,Model,LU,402.28626279179974
300,2020-10-26,Model,LU,454.7712345410023
301,2020-10-27,Model,LU,505.7576079331566
302,2020-10-28,Model,LU,553.0381999673076
303,2020-10-29,Model,LU,594.7451230600752
304,2020-10-30,Model,LU,629.4697246420119
305,2020-10-31,Model,LU,656.3188886255546
306,2020-11-01,Model,LU,674.9161229367688
307,2020-11-02,Model,LU,685.3606702423413
308,2020-11-03,Model,LU,688.1589201042908
309,2020-11-04,Model,LU,684.1408763100466
310,2020-11-05,Model,LU,674.3716319950096
311,2020-11-06,Model,LU,660.0647782126832
312,2020-11-07,Model,LU,642.5020894883506
313,2020-11-08,Model,LU,622.9619809874406
314,2020-11-09,Model,LU,602.658107048054
315,2020-11-10,Model,LU,582.688884161482
316,2020-11-11,Model,LU,563.9984278860583
317,2020-11-12,Model,LU,547.349176475563
318,2020-11-13,Model,LU,533.3061959628188
319,2020-11-14,Model,LU,522.2327733839029
320,2020-11-15,Model,LU,514.2964319228922
321,2020-11-16,Model,LU,509.484013139036
322,2020-11-17,Model,LU,507.62404831680107
323,2020-11-18,Model,LU,508.414351202568
324,2020-11-19,Model,LU,511.4526475395534
325,2020-11-20,Model,LU,516.2681199838571
326,2020-11-21,Model,LU,522.3519688988482
327,2020-11-22,Model,LU,529.1854294709909
328,2020-11-23,Model,LU,536.2640938626965
329,2020-11-24,Model,LU,543.1178144069066
330,2020-11-25,Model,LU,549.3258681181138
331,2020-11-26,Model,LU,554.5274131834203
332,2020-11-27,Model,LU,558.4275460896183
333,2020-11-28,Model,LU,560.7994665735844
334,2020-11-29,Model,LU,561.4833788650056
335,2020-11-30,Model,LU,560.3828104836911
336,2020-12-01,Model,LU,557.4590267519909
337,2020-12-02,Model,LU,552.7241742671157
338,2020-12-03,Model,LU,546.2337136238829
339,2020-12-04,Model,LU,538.0786129535422
340,2020-12-05,Model,LU,528.3776794430324
341,2020-12-06,Model,LU,517.2703136066224
342,2020-12-07,Model,LU,504.90988605007726
343,2020-12-08,Model,LU,491.4578620850515
344,2020-12-09,Model,LU,477.07873741530716
345,2020-12-10,Model,LU,461.9357985308461
346,2020-12-11,Model,LU,446.1876838014266
347,2020-12-12,Model,LU,429.9856943633559
348,2020-12-13,Model,LU,413.4717862325865
349,2020-12-14,Model,LU,396.7771650299844
350,2020-12-15,Model,LU,380.02140068000335
351,2020-12-16,Model,LU,363.31197997666226
352,2020-12-17,Model,LU,346.7442187150503
353,2020-12-18,Model,LU,330.40146107976375
354,2020-12-19,Model,LU,314.35550128520646
355,2020-12-20,Model,LU,298.66717038998866
356,2020-12-21,Model,LU,283.38703924306304
357,2020-12-22,Model,LU,268.55619629342283
358,2020-12-23,Model,LU,254.20706625945337
359,2020-12-24,Model,LU,240.36424225604028
360,2020-12-25,Model,LU,227.04530983918784
361,2020-12-26,Model,LU,214.2616465263823
362,2020-12-27,Model,LU,202.01918470275058
363,2020-12-28,Model,LU,190.31912947121293
364,2020-12-29,Model,LU,179.15862600868323
365,2020-12-30,Model,LU,168.5313734179859
366,2020-12-31,Model,LU,158.42818398762765
367,2021-01-01,Model,LU,148.83748825899372
368,2021-01-02,Model,LU,139.7457874194042
369,2021-01-03,Model,LU,131.13805535092362
370,2021-01-04,Model,LU,122.99809322381039
371,2021-01-05,Model,LU,115.30883987845493
372,2021-01-06,Model,LU,108.052641432503
373,2021-01-07,Model,LU,101.21148361637798
374,2021-01-08,Model,LU,94.76719031066887
375,2021-01-09,Model,LU,88.7015916578033
376,2021-01-10,Model,LU,82.9966649684888
377,2021-01-11,Model,LU,77.63465145707306
378,2021-01-12,Model,LU,72.598151632348
379,2021-01-13,Model,LU,67.8702019516675
380,2021-01-14,Model,LU,63.43433512443694
381,2021-01-15,Model,LU,59.274626231975795
382,2021-01-16,Model,LU,55.37572661876166
383,2021-01-17,Model,LU,51.72288730815205
384,2021-01-18,Model,LU,48.30197350583759
385,2021-01-19,Model,LU,45.09947157769412
386,2021-01-20,Model,LU,42.10248972593319
387,2021-01-21,Model,LU,39.29875343859526
388,2021-01-22,Model,LU,36.67659665223308
389,2021-01-23,Model,LU,34.22494944559095
390,2021-01-24,Model,LU,31.93332297252657
391,2021-01-25,Model,LU,29.79179224456269
392,2021-01-26,Model,LU,27.79097728645349
393,2021-01-27,Model,LU,25.922023111137786
394,2021-01-28,Model,LU,24.176578892559423
395,2021-01-29,Model,LU,22.54677665522465
396,2021-01-30,Model,LU,21.025209747224213
397,2021-01-31,Model,LU,19.604911318013695
398,2021-02-01,Model,LU,18.279332982805162
399,2021-02-02,Model,LU,17.042323821316174
400,2021-02-03,Model,LU,15.888109829245145
401,2021-02-04,Model,LU,14.811273915640065
402,2021-02-05,Model,LU,13.806736517803072
403,2021-02-06,Model,LU,12.869736887074412
404,2021-02-07,Model,LU,11.995815083360572
405,2021-02-08,Model,LU,11.18079470325259
406,2021-02-09,Model,LU,10.42076635569946
407,2021-02-10,Model,LU,9.712071890171996
408,2021-02-11,Model,LU,9.051289374823568
409,2021-02-12,Model,LU,8.43521881610197
410,2021-02-13,Model,LU,7.860868606396444
411,2021-02-14,Model,LU,7.325442682444647
412,2021-02-15,Model,LU,6.826328374225112
413,2021-02-16,Model,LU,6.36108492179206
414,2021-02-17,Model,LU,5.927432635857283
415,2021-02-18,Model,LU,5.523242676789217
416,2021-02-19,Model,LU,5.146527425998006
417,2021-02-20,Model,LU,4.79543142333268
418,2021-02-21,Model,LU,4.468222844069891
419,2021-02-22,Model,LU,4.163285489268556
420,2021-02-23,Model,LU,3.8791112636542406
421,2021-02-24,Model,LU,3.6142931157421327
422,2021-02-25,Model,LU,3.3675184155739264
423,2021-02-26,Model,LU,3.1375627462032156
424,2021-02-27,Model,LU,2.9232840858923463
425,2021-02-28,Model,LU,2.7236173588604764
426,2021-03-01,Model,LU,2.5375693333311387
427,2021-03-02,Model,LU,2.364213846553979
428,2021-03-03,Model,LU,2.2026873374076543
429,2021-03-04,Model,LU,2.0521846681199807
430,2021-03-05,Model,LU,1.911955217559565
431,2021-03-06,Model,LU,1.7812992294540924
432,2021-03-07,Model,LU,1.6595643997695895
433,2021-03-08,Model,LU,1.5461426883384177
434,2021-03-09,Model,LU,1.440467340648785
435,2021-03-10,Model,LU,1.3420101065032402
436,2021-03-11,Model,LU,1.2502786430164288
437,2021-03-12,Model,LU,1.1648140901526542
438,2021-03-13,Model,LU,1.0851888077011518
439,2021-03-14,Model,LU,1.011004263251261
440,2021-03-15,Model,LU,0.9418890613614558
441,2021-03-16,Model,LU,0.8774971047157005
442,2021-03-17,Model,LU,0.8175058786287575
443,2021-03-18,Model,LU,0.7616148507997237
444,2021-03-19,Model,LU,0.7095439787210615
445,2021-03-20,Model,LU,0.6610323176299463
446,2021-03-21,Model,LU,0.6158367223408918
447,2021-03-22,Model,LU,0.573730636724476
448,2021-03-23,Model,LU,0.5345029649978091
449,2021-03-24,Model,LU,0.49795701936926323
450,2021-03-25,Model,LU,0.46390953893411135
451,2021-03-26,Model,LU,0.432189775050277
452,2021-03-27,Model,LU,0.4026386387354269
453,2021-03-28,Model,LU,0.37510790591931803
454,2021-03-29,Model,LU,0.34945947665964455
455,2021-03-30,Model,LU,0.32556468468666894
456,2021-03-31,Model,LU,0.3033036538826487
457,2021-04-01,Model,LU,0.28256469852739413
458,2021-04-02,Model,LU,0.26324376435219127
459,2021-04-03,Model,LU,0.24524390764156495
460,2021-04-04,Model,LU,0.2284748098068475
461,2021-04-05,Model,LU,0.212852325027957
462,2021-04-06,Model,LU,0.19829805872099032
463,2021-04-07,Model,LU,0.18473897473984247
464,2021-04-08,Model,LU,0.17210702936075292
465,2021-04-09,Model,LU,0.16033883023009507
466,2021-04-10,Model,LU,0.14937531857843242
467,2021-04-11,Model,LU,0.13916147311841978
468,2021-04-12,Model,LU,0.12964603415107576
469,2021-04-13,Model,LU,0.12078124650476102
470,2021-04-14,Model,LU,0.11252262002433154
471,2021-04-15,Model,LU,0.10482870641484977
472,2021-04-16,Model,LU,0.09766089132530933
473,2021-04-17,Model,LU,0.09098320063346832
474,2021-04-18,Model,LU,0.08476211996342509
475,2021-04-19,Model,LU,0.07896642653337263
476,2021-04-20,Model,LU,0.07356703249232538
477,2021-04-21,Model,LU,0.0685368389618238
478,2021-04-22,Model,LU,0.06385060005197801
479,2021-04-23,Model,LU,0.05948479617095047
480,2021-04-24,Model,LU,0.055417515993348605
481,2021-04-25,Model,LU,0.05162834649623153
482,2021-04-26,Model,LU,0.04809827051173436
483,2021-04-27,Model,LU,0.04480957128287427
484,2021-04-28,Model,LU,0.041745743544119016
485,2021-04-29,Model,LU,0.03889141068093208
486,2021-04-30,Model,LU,0.03623224755292165
487,2021-05-01,Model,LU,0.033754908593570186
488,2021-05-02,Model,LU,0.031446960825936426
489,2021-05-03,Model,LU,0.029296821458342046
490,2021-05-04,Model,LU,0.027293699746995567
491,2021-05-05,Model,LU,0.02542754283388606
492,2021-05-06,Model,LU,0.023688985288201014
493,2021-05-07,Model,LU,0.022069302098084685
494,2021-05-08,Model,LU,0.02056036487685191
495,2021-05-09,Model,LU,0.019154601063889776
496,2021-05-10,Model,LU,0.017844955915495866
497,2021-05-11,Model,LU,0.016624857094895692
498,2021-05-12,Model,LU,0.015488181683719434
499,2021-05-13,Model,LU,0.014429225449364147
500,2021-05-14,Model,LU,0.013442674213986925
501,2021-05-15,Model,LU,0.01252357718141867
502,2021-05-16,Model,LU,0.011667322088112322
503,2021-05-17,Model,LU,0.010869612053393528
504,2021-05-18,Model,LU,0.010126444012808945
505,2021-05-19,Model,LU,0.009434088626313295
506,2021-05-20,Model,LU,0.008789071560437749
507,2021-05-21,Model,LU,0.008188156050479175
508,2021-05-22,Model,LU,0.007628326655174643
509,2021-05-23,Model,LU,0.00710677412231097
510,2021-05-24,Model,LU,0.006620881289296142
511,2021-05-25,Model,LU,0.006168209947914701
512,2021-05-26,Model,LU,0.005746488607329031
513,2021-05-27,Model,LU,0.005353601093898063
514,2021-05-28,Model,LU,0.004987575930585791
515,2021-05-29,Model,LU,0.004646576442645328
516,2021-05-30,Model,LU,0.004328891539910668
517,2021-05-31,Model,LU,0.004032927129424935
518,2021-06-01,Model,LU,0.003757198115298112
519,2021-06-02,Model,LU,0.003500320945635676
520,2021-06-03,Model,LU,0.0032610066691256497
521,2021-06-04,Model,LU,0.0030380544664305236
522,2021-06-05,Model,LU,0.0028303456239137993
523,2021-06-06,Model,LU,0.002636837919451799
524,2021-06-07,Model,LU,0.002456560392150051
525,2021-06-08,Model,LU,0.002288608469710746
526,2021-06-09,Model,LU,0.0021321394289933243
527,2021-06-10,Model,LU,0.001986368166982918
528,2021-06-11,Model,LU,0.0018505632609395405
529,2021-06-12,Model,LU,0.001724043297952698
530,2021-06-13,Model,LU,0.0016061734554785264
531,2021-06-14,Model,LU,0.0014963623156963473
532,2021-06-15,Model,LU,0.0013940588976954337
533,2021-06-16,Model,LU,0.001298749892596122
534,2021-06-17,Model,LU,0.0012099570877282019
535,2021-06-18,Model,LU,0.0011272349669384154
536,2021-06-19,Model,LU,0.001050168474983099
537,2021-06-20,Model,LU,0.0009783709347856275
538,2021-06-21,Model,LU,0.0009114821071055796
539,2021-06-22,Model,LU,0.0008491663828814466
540,2021-06-23,Model,LU,0.0007911110991746399
541,2021-06-24,Model,LU,0.0007370249702629171
542,2021-06-25,Model,LU,0.0006866366260093671
543,2021-06-26,Model,LU,0.0006396932501715345
544,2021-06-27,Model,LU,0.0005959593118168558
545,2021-06-28,Model,LU,0.0005552153834779269
546,2021-06-29,Model,LU,0.0005172570401164872
547,2021-06-30,Model,LU,0.00048189383337054987
548,2021-07-01,Model,LU,0.00044894833593700164
549,2021-07-02,Model,LU,0.00041825525129397085
550,2021-07-03,Model,LU,0.00038966058429522663
551,2021-07-04,Model,LU,0.0003630208684743478
552,2021-07-05,Model,LU,0.0003382024461810447
553,2021-07-06,Model,LU,0.000315080797937166
554,2021-07-07,Model,LU,0.0002935399176469237
555,2021-07-08,Model,LU,0.0002734717305260215
556,2021-07-09,Model,LU,0.000254775550828755
557,2021-07-10,Model,LU,0.00023735757665187206
558,2021-07-11,Model,LU,0.0002211304192800682
559,2021-07-12,Model,LU,0.0002060126647113367
560,2021-07-13,Model,LU,0.00019192846516187582
561,2021-07-14,Model,LU,0.00017880715850072186
562,2021-07-15,Model,LU,0.0001665829137044318
563,2021-07-16,Model,LU,0.00015519440055271387
564,2021-07-17,Model,LU,0.00014458448190756104
565,2021-07-18,Model,LU,0.0001346999270317693
566,2021-07-19,Model,LU,0.00012549114450830035
567,2021-07-20,Model,LU,0.00011691193342032131
568,2021-07-21,Model,LU,0.00010891925154337104
569,2021-07-22,Model,LU,0.0001014729993864915
570,2021-07-23,Model,LU,9.453581899868174e-05
571,2021-07-24,Model,LU,8.807290653113176e-05
572,2021-07-25,Model,LU,8.205183761471911e-05
573,2021-07-26,Model,LU,7.644240467655738e-05
574,2021-07-27,Model,LU,7.121646537930191e-05
575,2021-07-28,Model,LU,6.634780142272165e-05
576,2021-07-29,Model,LU,6.181198699905361e-05
577,2021-07-30,Model,LU,5.758626624209237e-05
578,2021-07-31,Model,LU,5.36494390550993e-05
579,2021-08-01,Model,LU,4.998175474465756e-05
580,2021-08-02,Model,LU,4.656481292677347e-05
581,2021-08-03,Model,LU,4.338147120800749e-05
582,2021-08-04,Model,LU,4.041575917842204e-05
583,2021-08-05,Model,LU,3.765279828479969e-05
584,2021-08-06,Model,LU,3.507872718209284e-05
585,2021-08-07,Model,LU,3.26806321885544e-05
586,2021-08-08,Model,LU,3.0446482495606877e-05
587,2021-08-09,Model,LU,2.8365069807367542e-05
588,2021-08-10,Model,LU,2.6425952106970195e-05
589,2021-08-11,Model,LU,2.461940126753464e-05
590,2021-08-12,Model,LU,2.2936354244924097e-05
591,2021-08-13,Model,LU,2.1368367607403206e-05
592,2021-08-14,Model,LU,1.990757517405253e-05
593,2021-08-15,Model,LU,1.854664854939499e-05
594,2021-08-16,Model,LU,1.727876035621943e-05
595,2021-08-17,Model,LU,1.6097549982127283e-05
596,2021-08-18,Model,LU,1.4997091667939553e-05
597,2021-08-19,Model,LU,1.397186477785225e-05
598,2021-08-20,Model,LU,1.3016726102175014e-05
599,2021-08-21,Model,LU,1.2126884053687156e-05
600,2021-08-22,Model,LU,1.1297874628144771e-05
601,2021-08-23,Model,LU,1.0525539008326037e-05
602,2021-08-24,Model,LU,9.80600269924705e-06
603,2021-08-25,Model,LU,9.135656089863544e-06
604,2021-08-26,Model,LU,8.511136343731073e-06
605,2021-08-27,Model,LU,7.929310527763993e-06
606,2021-08-28,Model,LU,7.3872598944463e-06
607,2021-08-29,Model,LU,6.8822652386336286e-06
608,2021-08-30,Model,LU,6.411793255478396e-06
609,2021-08-31,Model,LU,5.9734838310324794e-06
610,2021-09-01,Model,LU,5.565138201761672e-06
611,2021-09-02,Model,LU,5.184707923565515e-06
612,2021-09-03,Model,LU,4.830284594958251e-06
613,2021-09-04,Model,LU,4.500090282849649e-06
614,2021-09-05,Model,LU,4.19246860289048e-06
615,2021-09-06,Model,LU,3.90587640963104e-06
616,2021-09-07,Model,LU,3.6388760548009537e-06
617,2021-09-08,Model,LU,3.3901281748688456e-06
618,2021-09-09,Model,LU,3.1583849716959895e-06
619,2021-09-10,Model,LU,2.9424839525722504e-06
620,2021-09-11,Model,LU,2.7413420982270556e-06
621,2021-09-12,Model,LU,2.5539504295558265e-06
622,2021-09-13,Model,LU,2.379368945802493e-06
623,2021-09-14,Model,LU,2.216721908802477e-06
624,2021-09-15,Model,LU,2.0651934496267468e-06
625,2021-09-16,Model,LU,1.9240234755852547e-06
626,2021-09-17,Model,LU,1.7925038570547534e-06
627,2021-09-18,Model,LU,1.6699748750002038e-06
628,2021-09-19,Model,LU,1.5558219113667726e-06
629,2021-09-20,Model,LU,1.4494723657379955e-06
630,2021-09-21,Model,LU,1.3503927827908546e-06
631,2021-09-22,Model,LU,1.2580861761362384e-06
632,2021-09-23,Model,LU,1.1720895351183494e-06
633,2021-09-24,Model,LU,1.0919715020647557e-06
634,2021-09-25,Model,LU,1.0173302083338344e-06
635,2021-09-26,Model,LU,9.477912583031015e-07
636,2021-09-27,Model,LU,8.830058511841581e-07
637,2021-09-28,Model,LU,8.226490312414506e-07
638,2021-09-29,Model,LU,7.664180576363248e-07
639,2021-09-30,Model,LU,7.140308857179084e-07
640,2021-10-01,Model,LU,6.652247521416153e-07
641,2021-10-02,Model,LU,6.197548567168964e-07
642,2021-10-03,Model,LU,5.773931343711938e-07
643,2021-10-04,Model,LU,5.379271110691475e-07
644,2021-10-05,Model,LU,5.011588379473593e-07
645,2021-10-06,Model,LU,4.66903898317353e-07
646,2021-10-07,Model,LU,4.349904825550266e-07
647,2021-10-08,Model,LU,4.0525852623543447e-07
648,2021-10-09,Model,LU,3.7755890718905617e-07
649,2021-10-10,Model,LU,3.517526974513153e-07
650,2021-10-11,Model,LU,3.2771046635250193e-07
651,2021-10-12,Model,LU,3.053116312518503e-07
652,2021-10-13,Model,LU,2.844438526585068e-07
653,2021-10-14,Model,LU,2.650024707048558e-07
654,2021-10-15,Model,LU,2.468899801451082e-07
655,2021-10-16,Model,LU,2.3001554124534359e-07
656,2021-10-17,Model,LU,2.1429452411125658e-07
657,2021-10-18,Model,LU,1.9964808416763068e-07
658,2021-10-19,Model,LU,1.860027666598163e-07
659,2021-10-20,Model,LU,1.7329013819312238e-07
660,2021-10-21,Model,LU,1.6144644346165804e-07
661,2021-10-22,Model,LU,1.5041228544454032e-07
662,2021-10-23,Model,LU,1.401323274651142e-07
663,2021-10-24,Model,LU,1.3055501561851433e-07
664,2021-10-25,Model,LU,1.2163232017509143e-07
665,2021-10-26,Model,LU,1.1331949466240739e-07
666,2021-10-27,Model,LU,1.0557485141721237e-07
667,2021-10-28,Model,LU,9.835955248143255e-08
668,2021-10-29,Model,LU,9.163741479317934e-08
669,2021-10-30,Model,LU,8.537472869550315e-08
670,2021-10-31,Model,LU,7.954008885243387e-08
671,2021-11-01,Model,LU,7.41042367240831e-08
672,2021-11-02,Model,LU,6.903991381058485e-08
673,2021-11-03,Model,LU,6.432172492866682e-08
674,2021-11-04,Model,LU,5.992601083498045e-08
675,2021-11-05,Model,LU,5.583072955720454e-08
676,2021-11-06,Model,LU,5.201534583762649e-08
677,2021-11-07,Model,LU,4.846072813459601e-08
678,2021-11-08,Model,LU,4.514905266516865e-08
679,2021-11-09,Model,LU,4.20637140075755e-08
680,2021-11-10,Model,LU,3.9189241815065337e-08
681,2021-11-11,Model,LU,3.651122322332398e-08
682,2021-11-12,Model,LU,3.401623056223719e-08
683,2021-11-13,Model,LU,3.169175400937641e-08
684,2021-11-14,Model,LU,2.952613884737198e-08
685,2021-11-15,Model,LU,2.750852701043988e-08
686,2021-11-16,Model,LU,2.5628802626841188e-08
687,2021-11-17,Model,LU,2.3877541284101038e-08
688,2021-11-18,Model,LU,2.224596276248784e-08
689,2021-11-19,Model,LU,2.0725886999654656e-08
690,2021-11-20,Model,LU,1.9309693065550156e-08
691,2021-11-21,Model,LU,1.7990280941811055e-08
692,2021-11-22,Model,LU,1.6761035913914442e-08
693,2021-11-23,Model,LU,1.5615795397476097e-08
694,2021-11-24,Model,LU,1.4548818032291358e-08
695,2021-11-25,Model,LU,1.355475488909095e-08
696,2021-11-26,Model,LU,1.262862264458339e-08
697,2021-11-27,Model,LU,1.1765778590227485e-08
698,2021-11-28,Model,LU,1.0961897349379016e-08
699,2021-11-29,Model,LU,1.0212949186024337e-08
700,2021-11-30,Model,LU,9.515179796298025e-09
701,2021-12-01,Model,LU,8.865091481419526e-09
702,2021-12-02,Model,LU,8.259425607614096e-09
703,2021-12-03,Model,LU,7.695146265037948e-09
704,2021-12-04,Model,LU,7.169425043743371e-09
705,2021-12-05,Model,LU,6.679626850322068e-09
706,2021-12-06,Model,LU,6.223296694085612e-09
707,2021-12-07,Model,LU,5.798147376505035e-09
708,2021-12-08,Model,LU,5.4020480221630254e-09
709,2021-12-09,Model,LU,5.033013393692533e-09
710,2021-12-10,Model,LU,4.689193937108956e-09
